...
----------------------------------------------------------------------
Ran 3 tests in 0.001s

OK
Name             Stmts   Miss Branch BrPart  Cover   Missing
------------------------------------------------------------
Netflix.py          48      3      6      1    93%   26-29, 22->26
TestNetflix.py      23      0      0      0   100%
------------------------------------------------------------
TOTAL               71      3      6      1    95%
