........
----------------------------------------------------------------------
Ran 8 tests in 0.001s

OK
Name             Stmts   Miss Branch BrPart  Cover   Missing
------------------------------------------------------------
Netflix.py          48      5     10      3    86%   26-29, 87, 89, 22->26, 86->87, 88->89
TestNetflix.py      61      0     12      0   100%
------------------------------------------------------------
TOTAL              109      5     22      3    94%
