5:
4.407
3.959
3.205
3.686
4.313
4.006
3.766
3.266
3.394
3.867
3.985
3.801
3.29
3.758
3.83
4.028
4.233
4.017
3.563
3.974
4.212
4.345
3.436
4.133
3.966
3.508
3.876
4.12
3.905
3.986
3.292
4.282
4.068
3.848
4.094
3.551
3.451
3.751
3.573
3.741
3.857
3.696
3.702
3.227
3.903
4.666
4.293
3.583
4.353
3.743
4.189
3.499
3.395
4.141
4.071
3.32
3.616
3.894
3.709
3.349
3.854
3.61
3.96
3.085
50:
4.177
3.49
3.45
3.894
3.259
500:
4.278
3.69
3.589
3.631
3.818
3.981
3.438
4.012
3.233
5000:
3.359
3.615
3.035
3.792
3.617
3.789
4.12
3.606
3.94
3.896
5001:
3.73
3.356
3.05
3.32
3.774
4.01
3.675
2.902
3.251
5002:
3.205
3.08
3.597
5003:
4.016
4.262
5004:
3.877
3.226
3.207
4.163
3.694
3.433
4.106
3.684
2.868
3.631
4.163
3.386
4.01
3.834
3.449
3.859
3.969
3.974
3.844
3.741
3.466
3.999
3.361
3.616
3.886
3.821
4.211
3.479
3.839
3.346
3.335
3.774
3.896
3.815
3.711
3.449
3.449
3.598
3.789
4.184
4.674
3.908
4.009
3.707
3.759
3.343
3.058
3.599
3.384
3.884
3.704
3.085
3.406
3.746
3.742
3.255
3.647
3.502
3.791
3.692
3.324
4.227
3.919
3.664
4.232
4.025
3.274
3.328
4.125
3.353
4.007
3.906
3.803
3.465
3.928
4.394
3.457
3.636
3.419
3.721
3.328
3.386
3.837
4.173
3.607
3.491
3.726
3.38
3.566
3.458
3.54
3.549
3.613
3.595
3.574
3.656
3.697
3.443
3.974
3.587
3.339
3.921
3.914
3.966
3.629
3.822
2.356
3.587
3.537
4.087
3.747
3.232
3.629
3.155
3.78
3.184
3.578
3.958
3.764
3.81
4.076
3.812
3.562
3.63
4.363
3.022
3.446
3.274
3.607
3.781
4.037
4.304
3.888
3.743
3.748
3.86
3.668
3.877
4.04
3.916
3.344
3.747
3.838
4.153
4.304
3.953
3.673
3.09
3.561
3.895
3.967
3.794
3.681
3.703
3.509
3.872
3.869
3.473
3.965
3.929
4.418
3.278
2.807
3.417
3.691
3.464
3.441
3.024
3.281
3.817
3.873
3.84
3.754
3.326
3.706
3.711
3.652
3.804
3.715
3.774
3.947
3.708
3.768
3.22
3.487
4.394
3.741
3.872
3.199
3.553
3.851
3.461
4.549
3.442
3.942
3.726
3.68
2.896
3.475
3.234
3.458
3.772
3.455
3.646
3.75
4.181
3.997
3.178
3.229
3.074
3.629
4.674
3.797
3.87
3.617
3.035
4.229
3.5
3.693
3.435
3.274
3.525
3.876
3.831
3.71
3.655
3.658
4.248
3.62
4.515
3.862
3.834
3.554
4.219
3.624
3.144
3.93
3.756
3.927
3.489
3.976
4.165
2.807
3.902
3.766
3.924
3.718
3.499
3.383
3.97
3.812
3.614
4.345
4.081
3.453
3.557
3.825
3.799
3.618
4.213
3.733
4.262
3.685
3.428
5005:
3.532
3.752
3.662
3.188
2.95
3.256
3.718
3.42
3.51
5006:
3.691
3.415
3.71
4.522
3.647
3.618
4.272
3.775
3.457
3.723
3.943
4.262
3.744
3.554
4.517
3.962
3.726
3.603
2.882
3.499
3.828
3.85
3.563
4.113
3.441
3.729
5007:
2.784
3.371
3.403
3.004
2.598
3.563
3.637
5008:
3.845
3.245
3.543
3.604
3.651
5009:
3.891
3.575
3.468
3.709
501:
3.828
3.359
3.365
3.95
3.628
3.851
3.652
3.625
3.823
4.072
3.571
4.159
3.97
3.767
3.19
3.415
3.706
3.669
3.507
3.417
3.486
4.136
4.101
3.681
3.702
3.594
4.157
3.672
3.627
3.72
4.145
3.668
3.709
3.999
3.979
3.771
3.955
3.698
3.714
3.458
3.54
3.443
3.893
3.776
3.694
3.957
3.354
3.899
3.791
3.757
3.863
3.648
4.035
3.923
3.682
3.615
3.571
3.927
3.352
3.632
3.681
3.329
3.557
3.813
3.121
4.385
3.875
3.999
3.895
3.697
3.868
3.406
4.139
4.02
3.668
3.34
4.28
3.597
3.669
3.687
2.929
3.475
3.497
3.883
4.434
4.22
3.75
3.691
3.391
3.45
3.879
3.568
3.764
3.4
3.923
3.268
3.872
3.515
3.72
3.13
4.38
4.055
3.959
3.398
3.577
3.619
3.82
3.481
3.803
3.512
3.718
3.938
3.501
3.176
3.554
3.464
3.985
3.55
3.991
3.555
4.212
3.992
3.47
3.772
3.621
4.336
3.809
3.955
3.882
3.826
3.928
3.546
3.869
3.982
4.003
3.377
3.625
3.518
3.942
3.768
3.742
3.933
3.753
4.055
3.49
3.368
4.002
4.173
4.035
3.886
3.814
4.034
3.333
3.999
3.642
3.557
4.262
4.038
3.903
3.994
3.79
3.431
3.639
3.373
4.257
3.457
3.69
3.456
3.51
3.81
3.97
3.849
3.871
3.187
4.147
3.842
3.986
3.67
3.88
3.569
3.334
3.608
3.95
3.407
3.892
3.597
3.907
3.395
3.919
3.709
4.155
3.454
4.029
3.838
3.181
3.574
3.59
3.956
3.102
3.704
3.632
3.466
3.426
3.49
3.567
3.415
3.845
3.831
3.991
4.042
4.048
3.922
3.672
3.686
3.547
3.788
3.61
3.635
4.379
3.626
3.857
3.784
3.909
3.473
3.86
3.326
3.864
3.62
3.832
3.779
3.632
3.367
3.732
3.769
3.85
3.823
4.191
3.351
3.909
4.012
3.903
3.766
3.533
2.9
3.634
3.62
3.402
4.158
3.667
3.846
3.31
4.247
3.618
3.781
3.813
3.961
3.83
4.066
3.95
3.629
3.242
3.632
4.01
3.575
4.232
3.725
3.773
3.579
3.45
3.51
4.09
3.855
3.604
3.616
3.859
3.837
3.338
3.444
3.84
3.352
3.876
3.777
3.861
3.683
3.626
4.096
3.595
3.313
4.215
3.731
3.761
3.18
3.911
3.88
3.547
3.56
3.583
3.677
3.733
3.228
4.165
3.988
4.089
3.59
3.421
3.524
3.652
3.776
3.564
3.902
3.65
3.655
3.518
2.859
3.458
3.53
3.554
3.424
3.792
3.4
3.751
3.999
3.686
3.425
3.781
3.714
5010:
3.53
3.312
3.52
3.649
4.083
3.692
3.856
3.273
3.702
3.433
3.646
3.824
3.695
3.497
3.792
3.71
3.797
3.046
4.089
3.938
3.494
3.249
3.741
3.599
3.529
3.402
3.576
3.667
3.074
3.831
3.527
3.617
3.351
3.448
3.203
3.925
3.867
3.949
3.491
2.664
3.237
3.044
3.786
3.288
3.645
3.145
3.71
3.641
3.478
3.814
3.828
3.439
3.351
3.856
3.774
4.134
3.54
3.446
3.402
3.524
3.046
3.297
3.425
3.868
3.496
3.71
3.646
3.235
3.508
4.068
3.167
5012:
3.469
3.606
3.537
3.161
3.813
3.366
3.819
3.278
3.528
3.634
3.324
3.486
3.81
3.233
3.371
2.996
4.232
5013:
3.344
2.92
2.921
2.565
2.784
3.594
5014:
4.106
3.934
3.485
2.865
3.793
4.012
4.131
3.6
3.451
3.107
2.515
3.912
2.952
3.663
3.893
3.813
3.416
3.88
3.361
3.501
3.944
3.228
3.576
4.037
3.79
3.866
4.596
3.988
4.071
3.123
4.129
4.54
3.806
3.917
3.447
3.74
3.919
3.438
5015:
3.467
3.149
2.841
3.693
2.566
3.31
3.576
3.708
3.815
3.589
3.409
2.778
3.71
3.681
3.495
3.536
3.937
3.659
5016:
3.394
3.359
4.08
4.301
4.326
3.799
3.875
3.914
4.525
3.396
3.752
4.035
3.862
4.003
3.737
3.451
4.163
3.579
3.942
3.144
3.766
4.014
3.772
3.115
3.638
4.037
3.179
3.926
3.556
3.663
4.202
3.71
3.787
4.084
3.603
3.753
3.324
3.468
3.875
3.499
3.832
3.697
3.632
3.551
4.203
4.414
3.695
4.067
3.678
3.69
3.816
3.849
3.481
4.061
3.572
3.766
4.124
3.558
4.109
3.691
3.544
3.982
3.892
3.939
3.638
2.812
4.034
3.704
3.97
3.904
3.571
3.389
3.369
3.958
3.845
4.402
3.981
3.424
3.481
4.425
3.637
3.819
3.529
4.154
3.959
3.668
3.226
4.005
3.999
3.549
3.383
4.344
3.755
3.529
4.148
3.622
3.629
3.495
3.825
3.451
5017:
2.595
3.095
3.388
3.113
3.143
3.14
3.57
3.423
3.325
3.371
5018:
3.929
4.326
3.855
4.472
4.269
4.412
3.962
4.131
4.255
4.112
4.387
4.713
4.446
3.922
4.144
3.818
3.989
4.214
4.336
4.425
4.041
3.871
3.984
4.609
4.733
4.216
4.251
3.983
4.407
4.235
4.193
3.539
3.57
4.207
3.565
3.609
4.56
4.76
3.547
4.204
4.135
4.134
3.715
4.263
4.162
4.045
3.834
3.88
3.842
4.24
3.962
4.018
4.716
4.075
4.036
4.487
3.722
3.662
3.95
4.862
3.612
4.656
5019:
3.25
3.611
3.202
3.456
502:
3.525
3.632
3.097
3.616
3.787
3.56
3.932
3.945
3.689
4.197
3.939
3.793
3.753
3.86
3.917
4.011
3.481
3.581
3.55
3.96
3.916
3.592
3.4
3.497
3.895
3.562
3.369
4.197
3.884
3.378
3.595
3.707
3.735
3.536
3.458
4.481
4.11
3.768
4.232
3.758
3.744
3.683
3.655
3.127
3.575
3.501
3.024
3.838
4.472
3.78
3.924
3.358
3.671
3.751
3.723
4.466
3.496
3.447
4.197
4.157
3.447
3.412
4.041
3.35
3.633
3.454
3.11
4.066
3.769
3.749
3.583
4.122
3.873
3.673
5020:
3.173
3.606
3.303
3.377
2.879
2.815
3.396
3.012
3.354
3.577
2.761
4.027
2.253
3.533
3.733
3.001
3.644
3.389
3.583
3.92
3.292
3.582
3.621
3.312
3.581
3.762
3.687
3.249
3.64
3.652
3.018
3.496
3.147
2.882
2.977
3.628
3.393
3.329
2.968
3.669
3.661
3.263
3.649
3.78
3.594
3.56
3.635
3.077
3.463
3.604
3.463
2.897
3.798
3.706
3.756
3.687
3.158
3.173
3.291
3.653
3.507
3.287
3.013
3.706
3.71
3.125
2.872
3.738
2.94
3.787
3.336
3.25
3.63
3.337
2.864
3.276
3.056
3.389
3.047
3.554
3.237
2.857
3.83
4.051
3.234
3.278
3.392
3.447
3.065
3.394
3.304
3.448
3.576
3.566
3.054
3.048
3.599
3.244
3.524
3.343
3.691
3.075
3.157
3.939
2.639
3.297
3.834
2.496
3.012
3.284
3.337
3.387
2.792
2.906
3.39
3.373
3.272
3.127
3.654
2.94
3.339
3.014
2.606
3.487
3.29
3.55
2.981
3.804
3.558
3.649
3.565
3.871
3.774
3.118
5021:
2.742
3.935
3.69
3.875
3.951
4.635
3.567
3.402
5022:
3.066
4.07
3.946
3.401
3.64
3.859
3.433
3.495
3.6
3.668
3.383
2.985
3.679
3.63
4.006
3.658
3.736
3.401
3.069
3.422
3.501
5023:
3.365
3.699
3.251
3.671
3.471
4.023
4.034
3.944
5024:
4.058
4.004
4.166
4.009
3.837
4.443
3.718
3.477
4.208
3.836
5025:
3.848
3.541
3.698
3.727
3.83
3.979
3.762
3.949
3.666
3.721
3.524
4.52
3.803
3.792
4.229
3.695
3.789
3.913
3.556
3.781
3.647
3.369
4.011
3.732
3.725
3.865
4.174
3.996
3.952
3.73
3.468
3.837
3.441
3.801
3.452
3.654
3.66
4.167
3.964
3.377
3.704
3.903
3.916
3.568
3.208
4.035
3.858
3.537
3.901
3.075
2.94
3.69
3.76
4.032
3.961
3.603
4.209
3.299
3.274
3.45
3.848
3.795
3.658
3.593
4.027
3.756
3.759
3.595
3.704
3.73
3.543
3.817
3.966
3.394
3.863
4.182
3.816
4.113
4.299
3.807
3.569
4.001
3.478
3.815
4.067
3.501
3.729
3.591
3.308
3.782
3.122
3.464
3.636
3.896
3.802
3.884
3.608
3.579
3.817
3.209
3.459
4.24
3.725
3.595
3.775
5026:
3.959
3.723
2.885
3.401
3.028
3.629
3.093
3.368
4.001
4.21
3.935
3.655
4.168
3.209
4.235
3.463
3.275
3.582
3.377
3.594
3.56
3.667
2.817
3.709
4.117
4.281
3.548
4.0
3.901
3.484
3.365
3.853
3.817
3.659
3.502
3.258
3.093
3.935
3.953
3.466
3.833
3.541
3.94
3.317
3.755
3.491
3.235
3.813
3.568
3.135
3.612
3.951
3.851
3.757
3.833
3.478
4.325
3.524
3.787
4.355
3.281
3.776
3.702
3.764
3.802
3.758
3.62
3.612
3.73
3.641
2.962
3.333
3.098
3.46
3.264
3.266
4.298
5027:
2.662
3.59
3.354
3.167
3.521
3.266
2.803
3.183
3.306
3.164
3.636
2.911
3.029
3.594
3.208
3.586
3.762
3.265
3.318
3.766
3.214
3.834
3.284
3.278
2.877
3.451
3.048
3.215
3.354
3.441
2.852
2.986
2.479
3.368
3.959
3.516
2.936
0.93
