10:
3.0
2.7
1000:
3.3
2.9
2.7
4.7
3.6
3.5
3.3
4.0
3.1
2.9
3.3
3.6
3.3
4.4
4.0
3.1
3.1
3.1
3.3
3.7
3.7
4.0
2.4
3.1
4.1
3.2
3.7
10000:
3.8
4.0
10001:
3.7
4.4
3.9
2.8
4.2
3.4
3.5
4.0
4.0
2.8
4.2
4.2
3.0
4.3
3.9
4.0
4.5
10002:
4.5
3.6
5.0
4.1
10003:
1.9
10004:
5.0
4.2
4.4
4.0
4.8
4.4
4.5
4.3
4.4
4.2
4.2
3.9
4.4
3.9
5.0
4.7
4.5
4.5
4.7
5.0
4.4
4.1
3.9
4.2
5.0
3.9
4.3
4.5
3.3
4.7
4.6
10005:
3.6
4.1
3.2
3.1
3.7
10006:
4.0
3.4
4.2
2.9
10007:
2.2
2.8
2.5
2.4
2.1
2.6
2.2
3.0
2.5
2.9
2.4
2.8
2.5
10008:
4.9
3.6
3.7
3.2
4.4
4.2
4.2
10009:
3.9
3.6
4.8
2.8
2.7
3.5
1001:
3.2
3.6
3.9
3.0
4.2
4.0
3.7
3.7
2.7
3.7
3.6
4.1
2.9
3.7
3.4
3.3
4.0
3.8
2.9
3.2
3.2
3.7
3.3
2.8
3.5
2.9
3.6
3.7
4.0
4.1
3.7
4.7
3.0
3.5
3.3
3.5
4.1
2.7
3.4
3.7
4.0
3.0
3.6
4.0
4.1
3.8
3.4
3.1
3.2
4.1
3.2
2.2
2.5
3.6
4.1
4.2
3.6
3.3
3.5
3.2
3.4
3.1
2.9
2.9
4.1
3.2
2.8
3.0
4.0
3.5
2.9
3.3
3.5
3.0
2.2
3.7
2.6
2.5
3.7
3.5
4.2
4.0
2.5
2.8
3.5
3.2
3.4
4.2
3.4
3.0
4.1
3.5
3.4
3.8
3.1
2.7
3.1
4.7
3.3
4.0
3.5
3.7
3.1
3.0
3.2
3.5
3.7
3.9
3.7
2.7
3.1
3.4
3.4
3.0
3.4
2.4
3.0
4.2
3.8
3.1
3.3
3.5
3.6
3.5
3.2
3.3
3.1
3.6
3.7
3.3
3.5
3.7
3.6
3.4
10045:
3.6
10046:
3.0
1.7
2.4
10047:
4.0
5.0
4.2
4.8
4.7
3.6
4.4
4.1
10048:
3.2
3.2
2.9
2.9
3.5
4.0
2.6
10049:
1.7
2.0
1.5
1005:
3.3
2.8
2.8
2.6
3.2
3.1
3.2
2.7
3.3
3.0
3.0
2.8
2.9
10050:
2.8
2.6
3.0
2.4
3.3
2.4
10051:
3.4
3.0
3.1
4.1
3.4
3.9
3.3
4.4
3.8
2.0
3.5
4.4
3.2
3.7
3.7
4.6
3.5
3.9
3.2
4.6
3.1
10052:
3.2
3.2
3.4
2.8
3.2
10053:
3.5
3.9
3.4
3.3
4.3
3.8
3.7
4.2
4.2
5.0
4.6
3.7
4.1
4.0
4.4
3.8
3.9
3.3
4.2
3.5
3.2
3.8
4.2
4.4
3.9
4.0
3.8
4.7
4.7
4.1
3.4
3.4
5.0
3.6
4.6
4.1
4.1
4.0
3.8
4.1
3.1
3.9
4.1
4.6
4.1
3.6
4.3
3.7
4.2
3.1
3.4
3.6
4.6
4.3
4.1
4.3
3.6
4.0
3.5
3.5
4.6
4.1
4.2
4.0
4.7
3.7
4.1
3.5
10054:
1.0
3.1
2.8
2.9
2.6
3.1
1.4
3.5
3.3
3.6
2.4
3.1
10055:
3.7
3.5
3.6
3.9
4.1
3.5
4.1
3.5
3.3
3.2
4.0
2.8
3.4
3.9
2.9
2.2
3.1
3.7
3.8
2.9
3.6
3.1
3.5
3.3
3.8
3.8
3.3
3.5
2.9
4.1
3.6
3.7
3.2
2.8
3.5
3.2
3.8
3.4
4.0
3.6
3.8
2.6
3.3
3.9
2.5
3.8
3.6
3.3
2.6
3.2
3.2
3.7
3.5
2.4
3.3
3.6
3.7
3.4
3.4
3.3
3.4
2.4
4.3
3.7
3.3
3.3
3.1
3.3
3.3
3.6
3.1
3.5
3.5
3.8
2.4
3.1
3.3
2.8
3.3
10056:
1.6
3.2
3.2
3.9
2.8
3.4
3.5
10057:
2.7
3.2
2.8
3.5
3.2
2.7
10058:
2.8
3.3
10059:
1.6
1006:
4.5
4.4
3.6
4.5
4.3
3.9
4.2
5.0
4.3
4.1
3.8
3.8
4.6
4.5
4.7
4.3
4.1
4.8
4.8
4.7
3.9
3.3
4.1
4.3
3.9
4.4
4.3
3.9
4.3
4.9
10060:
3.1
1.0
4.4
3.2
2.9
2.6
4.3
3.8
4.4
10061:
3.7
4.2
4.9
4.6
4.5
4.5
5.0
4.2
4.6
4.3
5.0
4.4
3.8
4.0
4.5
4.7
4.7
5.0
4.5
4.5
4.3
4.8
3.7
4.3
4.1
4.9
5.0
4.9
3.9
3.8
5.0
4.6
4.1
4.4
4.8
5.0
4.6
4.1
5.0
4.5
5.0
4.4
4.5
5.0
4.5
4.8
4.9
4.6
5.0
4.4
4.1
4.6
4.2
4.5
5.0
4.8
4.7
5.0
4.0
3.2
4.1
4.3
4.2
4.7
4.6
4.0
3.6
5.0
4.3
5.0
4.1
4.1
5.0
4.6
4.6
5.0
4.5
4.7
4.3
4.4
4.7
4.5
4.4
4.3
3.8
3.9
4.9
4.8
4.4
5.0
4.6
4.4
5.0
5.0
4.0
4.7
5.0
4.0
5.0
5.0
4.0
4.3
4.0
5.0
4.6
3.3
3.1
3.9
5.0
4.7
4.0
3.8
4.2
4.1
4.3
4.4
5.0
4.8
4.3
3.2
5.0
3.9
4.4
4.7
4.4
4.8
4.2
4.0
4.6
4.4
4.4
4.0
4.8
5.0
5.0
5.0
5.0
4.4
4.6
5.0
4.3
4.1
4.1
4.6
4.4
4.6
5.0
4.4
4.6
4.5
5.0
10062:
2.9
3.3
10063:
4.4
3.8
4.0
4.1
4.9
4.4
4.9
4.8
2.9
3.9
4.2
4.7
4.5
4.0
10064:
2.1
2.7
3.1
10065:
3.1
3.2
2.8
2.4
3.5
3.5
2.4
3.0
1.4
2.5
2.1
3.3
3.0
3.9
3.5
3.1
2.8
3.0
3.6
3.5
2.6
2.5
2.5
2.5
3.7
3.2
2.5
3.3
2.1
3.2
2.1
2.1
2.9
2.6
2.5
3.5
10066:
1.4
3.3
2.6
2.9
3.2
10067:
3.2
3.4
4.3
3.7
3.5
3.4
3.0
10068:
3.8
4.3
3.6
4.2
3.0
4.2
10069:
2.9
2.2
1.0
1007:
2.8
3.0
4.2
3.0
3.4
10070:
3.0
2.1
1.4
10071:
3.8
3.7
3.9
5.0
4.3
4.0
4.2
4.1
4.4
4.4
4.0
4.5
4.1
4.2
3.5
4.1
4.1
4.4
3.7
3.7
4.3
10072:
4.6
4.4
4.6
4.6
3.7
3.8
3.7
4.1
4.7
3.7
4.5
5.0
4.8
3.7
4.6
4.5
4.1
4.4
4.3
4.1
3.3
4.6
5.0
4.3
3.9
3.8
4.4
3.7
3.7
4.6
4.0
5.0
4.7
4.4
4.2
4.9
3.8
4.8
4.4
4.7
4.3
4.5
3.7
5.0
3.8
3.9
3.8
5.0
4.4
4.1
4.1
4.4
3.8
4.5
3.8
4.1
3.6
5.0
3.6
3.5
4.3
4.3
5.0
4.3
4.4
3.5
4.0
5.0
5.0
4.8
4.3
4.8
3.9
5.0
10073:
3.8
3.8
3.3
3.6
3.9
4.0
3.3
2.9
3.0
2.6
3.2
4.6
3.8
3.6
4.4
3.9
3.8
10074:
4.5
3.9
4.0
4.2
4.3
4.5
3.7
4.3
4.4
4.0
4.4
4.4
3.7
5.0
3.5
10075:
2.4
10076:
3.9
3.8
3.4
5.0
3.9
3.3
4.4
10077:
4.6
4.9
3.8
3.3
4.1
3.5
4.1
4.0
4.1
4.2
2.6
4.5
4.4
10078:
3.2
2.4
2.5
3.5
3.2
3.4
3.3
3.6
3.8
3.4
4.0
3.7
4.0
4.3
3.7
3.0
4.0
4.0
3.0
2.6
2.9
3.2
3.7
3.5
3.5
3.9
2.5
3.1
3.6
3.7
3.7
3.3
3.3
3.5
3.4
3.4
3.3
4.2
3.3
3.4
3.7
2.6
4.1
2.4
3.2
3.3
3.6
3.2
3.5
2.9
3.3
3.2
3.0
3.3
3.5
3.1
3.0
3.5
3.0
3.2
2.8
3.4
3.0
3.8
3.1
3.0
3.1
3.8
3.1
4.0
3.4
3.2
2.7
3.4
3.2
2.9
3.4
3.4
3.4
3.4
3.6
3.2
3.3
2.9
3.5
3.2
4.2
3.9
3.7
3.0
3.6
4.3
3.2
3.7
3.4
3.8
3.5
3.6
4.0
3.7
3.6
3.3
3.6
2.6
3.4
4.4
3.5
3.3
4.3
3.0
3.1
3.9
4.7
2.7
3.3
2.5
2.9
3.5
3.9
3.3
3.2
2.7
3.1
4.4
2.8
4.1
3.1
3.1
3.4
2.7
3.5
3.1
3.3
3.3
4.6
4.1
3.4
3.2
3.9
3.4
3.6
14501:
3.8
4.6
4.2
4.0
3.1
5.0
4.1
3.8
3.5
3.9
4.1
4.1
3.4
4.4
5.0
4.1
3.8
4.2
3.8
4.1
3.6
3.9
4.0
4.1
4.3
3.4
4.2
3.8
4.0
3.5
4.2
4.5
4.3
4.1
2.5
3.8
3.9
3.6
4.2
3.6
3.4
3.1
2.5
3.7
3.6
3.5
3.9
3.3
14502:
3.0
2.3
2.8
3.1
2.7
2.8
2.0
2.3
3.1
2.8
2.6
2.3
2.0
2.0
2.9
2.8
2.5
1.6
1.0
3.1
2.6
2.2
2.0
2.6
2.6
1.7
5157:
3.2
3.9
2.1
5158:
4.0
5.0
4.6
4.7
3.5
3.8
4.1
4.4
4.2
3.9
3.8
4.3
3.3
3.9
3.8
3.9
3.6
4.7
5.0
4.4
3.7
4.4
3.8
3.4
4.0
4.5
3.7
4.2
3.9
5159:
2.7
1.0
3.2
2.2
516:
4.2
4.0
3.6
4.0
4.1
4.1
3.1
3.6
4.1
4.6
4.1
3.3
4.1
4.4
4.1
4.6
3.9
4.0
3.5
4.1
3.9
4.2
3.7
4.1
4.4
4.5
4.1
3.2
3.6
3.2
3.8
3.4
3.4
3.1
4.0
3.8
3.0
3.7
4.9
4.3
3.8
4.4
4.1
4.6
4.3
2.9
3.8
3.8
4.0
4.8
4.3
3.6
4.6
4.2
4.2
2.9
3.9
3.8
3.7
3.8
4.5
4.0
4.0
3.5
4.0
3.7
4.0
4.4
4.5
3.5
4.4
3.6
4.3
4.0
4.2
4.7
4.0
4.3
3.6
4.2
3.3
4.3
3.4
2.9
3.6
3.8
3.4
4.0
4.3
4.1
4.2
4.4
3.7
4.0
4.3
3.8
4.2
4.4
3.9
4.4
4.2
4.0
4.0
4.1
3.3
3.9
3.8
3.7
4.3
3.4
3.5
4.1
4.1
3.5
4.2
3.5
4.2
3.3
3.8
4.1
4.4
4.4
4.8
3.8
3.4
4.0
4.2
3.9
4.2
4.6
3.7
3.5
4.2
3.3
3.3
4.1
4.0
3.5
2.5
3.8
4.8
4.3
4.3
4.4
4.1
3.2
4.0
3.7
4.2
4.1
4.4
4.3
3.9
4.1
4.2
3.8
3.7
4.1
4.1
3.8
3.8
3.6
4.4
3.5
4.3
4.1
3.7
3.6
4.7
4.2
3.9
3.9
4.0
4.9
3.8
3.8
3.9
4.3
4.5
4.5
3.5
3.4
4.5
2.9
4.5
3.3
3.8
4.6
3.8
3.5
4.0
4.7
4.2
3.6
3.7
3.5
3.7
4.6
4.0
4.0
4.6
3.7
4.5
3.7
4.2
4.0
3.8
3.8
3.7
3.9
3.5
2.8
3.0
3.4
3.8
3.8
4.5
3.4
3.6
4.0
3.9
4.0
3.3
4.4
4.2
3.4
3.3
4.0
4.0
4.2
3.8
4.1
2.0
3.7
3.7
4.4
3.5
3.9
3.8
1.0
3.8
4.3
4.0
3.2
3.5
3.6
4.1
4.6
4.0
4.1
3.4
3.9
4.0
3.8
3.9
3.2
3.2
2.8
4.5
3.7
4.6
3.5
3.7
3.7
4.6
3.8
4.1
3.9
3.4
4.4
4.6
3.0
3.9
4.0
3.7
4.2
4.5
4.6
4.0
4.7
4.1
3.9
4.2
3.6
2.9
4.3
4.1
4.5
2.7
4.3
3.8
3.8
4.2
3.7
3.9
3.3
3.8
3.0
3.9
3.9
3.5
3.7
4.5
4.1
4.1
3.9
4.1
4.7
3.7
3.5
4.3
4.1
3.4
4.1
3.8
3.6
3.7
4.0
1.2
4.2
3.7
4.0
2.9
3.6
4.2
3.3
3.5
4.3
3.7
4.3
3.9
3.7
3.9
3.6
4.3
3.5
3.6
4.2
3.2
4.4
4.0
3.3
3.8
3.3
4.6
3.7
3.7
3.9
2.9
4.0
4.5
4.6
3.8
3.7
3.6
4.4
4.1
3.5
3.0
4.2
4.3
4.6
4.4
2.9
4.4
4.0
4.2
4.2
3.0
3.6
3.5
3.9
4.2
4.0
4.4
4.4
3.9
3.8
4.6
3.2
3.6
3.0
3.2
4.1
4.1
3.7
4.4
3.9
4.2
3.1
4.2
4.2
4.4
3.2
4.3
3.8
3.5
3.7
4.4
2.8
4.3
3.3
3.7
3.4
1.9
4.1
3.5
3.9
3.7
3.5
4.0
4.0
4.1
4.0
3.1
4.2
3.9
4.3
3.7
3.0
3.9
4.2
3.3
3.7
4.2
3.9
3.6
4.3
3.9
3.0
3.1
4.5
3.7
4.4
3.9
3.5
3.3
4.8
4.1
4.2
4.4
3.6
3.8
4.0
3.4
3.8
3.7
4.3
3.4
3.9
3.8
4.9
3.1
3.8
3.9
3.8
4.7
4.2
4.0
4.2
4.3
3.8
3.9
3.9
3.0
3.9
4.5
3.8
3.8
4.3
4.1
3.4
3.5
3.7
4.0
3.5
4.1
3.7
3.4
4.0
4.1
3.9
3.7
2.8
4.5
4.1
3.5
3.3
4.6
4.1
4.7
3.7
3.4
4.0
4.4
4.0
4.2
3.5
4.1
4.3
4.2
3.5
3.9
4.7
4.3
2.9
3.4
3.7
3.4
3.7
3.6
3.7
3.6
4.1
4.2
3.9
4.8
4.2
5.0
4.0
3.4
3.9
3.5
4.3
4.9
4.0
3.9
3.4
3.9
4.3
3.3
4.2
4.2
4.6
4.4
4.3
3.6
3.3
3.6
4.3
3.9
3.6
4.7
4.4
3.8
3.6
4.0
4.0
3.8
4.3
3.7
4.3
4.0
3.4
3.2
3.8
4.1
3.7
3.7
3.3
3.7
3.6
4.7
3.5
4.1
3.8
3.7
3.6
4.0
3.1
3.7
3.5
3.7
4.2
3.4
2.9
4.1
4.1
4.1
4.0
4.3
3.8
3.6
4.2
4.4
3.6
3.7
3.5
3.4
3.8
3.4
3.3
3.8
4.2
3.9
3.6
4.1
4.8
3.0
3.5
3.9
4.2
3.9
3.8
3.6
4.3
4.3
3.5
3.7
3.7
3.9
3.3
3.4
4.7
3.6
4.4
4.1
5160:
3.2
2.8
3.5
2.7
4.1
3.7
2.3
2.3
4.1
3.4
9996:
4.5
3.8
3.2
3.8
4.6
3.7
4.1
3.1
2.4
3.0
3.5
4.0
3.6
2.5
2.9
3.4
2.6
3.3
3.1
9997:
3.8
4.0
3.8
4.0
9998:
2.9
3.1
3.8
9999:
1.8
0.91
