..........
----------------------------------------------------------------------
Ran 10 tests in 9.767s

OK
Name             Stmts   Miss Branch BrPart  Cover   Missing
------------------------------------------------------------
Netflix.py          58      3     14      1    94%   25-28, 21->25
TestNetflix.py      57      0      6      0   100%
------------------------------------------------------------
TOTAL              115      3     20      1    97%
